R for cytometry course
…
3 Loading package datasets

R comes with a large variety of example datasets you can freely load and experiment with. Executing data() will open a new tab in RStudio listing all the datasets available in base R and the loaded packages. You can search for datasets in a particular package by using the package argument. To load a dataset, simply pass it as the argument to the data() function, and it will be loaded into your environment. Below, we load the penguins dataset.

Note that the penguins object is a tibble not a data.frame. A tibble can largely be treated the same as a data.frame, but it is more pleasing and easier to read when printed.

data()
data(package = "palmerpenguins")
data(penguins)
penguins

## # A tibble: 344 x 8
##    species island    bill_length_mm bill_depth_mm flipper_length_mm body_mass_g
##    <fct>   <fct>              <dbl>         <dbl>             <int>       <int>
##  1 Adelie  Torgersen           39.1          18.7               181        3750
##  2 Adelie  Torgersen           39.5          17.4               186        3800
##  3 Adelie  Torgersen           40.3          18                 195        3250
##  4 Adelie  Torgersen           NA            NA                  NA          NA
##  5 Adelie  Torgersen           36.7          19.3               193        3450
##  6 Adelie  Torgersen           39.3          20.6               190        3650
##  7 Adelie  Torgersen           38.9          17.8               181        3625
##  8 Adelie  Torgersen           39.2          19.6               195        4675
##  9 Adelie  Torgersen           34.1          18.1               193        3475
## 10 Adelie  Torgersen           42            20.2               190        4250
## # ... with 334 more rows, and 2 more variables: sex <fct>, year <int>
…
